[
    {
            "id": 1,
            "first_name": "Eve",
            "last_name": "Holt",
            "month": "Jan",
            "mobile": "9876543210",
            "year": "2017"
    },
    {
            "id": 5,
            "first_name": "Charles",
            "last_name": "Morris",
            "month": "Jan",
            "mobile": "9825784510",
            "year": "2018"
    },
    {
            "id": 6,
            "first_name": "Tracey",
            "last_name": "Ramos",
            "month": "Jan",
            "mobile": "9476543256",
            "year": "2017"
    },
    {
            "id": 7,
            "first_name": "Mark",
            "last_name": "Ramos",
            "month": "Feb",
            "mobile": "9876658910",
            "year": "2017"
    },
    {
            "id": 11,
            "first_name": "Mark",
            "last_name": "Bravo",
            "month": "Apr",
            "mobile": "9878968910",
            "year": "2016"
    },
    {
            "id": 10,
            "first_name": "David",
            "last_name": "Ramos",
            "month": "Mar",
            "mobile": "9878968910",
            "year": "2016"
    },
    {
            "id": 13,
            "first_name": "Mark",
            "last_name": "Ramos",
            "month": "Jan",
            "mobile": "9878968910",
            "year": "2016"
    },
    {
            "id": 17,
            "first_name": "Mark",
            "last_name": "Antony",
            "month": "Jan",
            "mobile": "9878968910",
            "year": "2015"
    },
    {
            "id": 16,
            "first_name": "David",
            "last_name": "Ramos",
            "month": "Mar",
            "mobile": "9878968910",
            "year": "2015"
    },{
            "id": 14,
            "first_name": "Will",
            "last_name": "Smith",
            "month": "Apr",
            "mobile": "9878968910",
            "year": "2015"
    },
    {
            "id": 8,
            "first_name": "Antony",
            "last_name": "Ramos",
            "month": "Feb",
            "mobile": "9235443210",
            "year": "2018"
    }
]



